{
"type": "FeatureCollection",
"features": [
{ "type": "Feature", "properties": { "emission": "tr4", "value": 0.0 }, "geometry": { "type": "Point", "coordinates": [ 129.337631, 35.494991, 450.0 ] } },
{ "type": "Feature", "properties": { "emission": "tr4", "value": 0.0 }, "geometry": { "type": "Point", "coordinates": [ 129.33873, 35.494991, 450.0 ] } },
{ "type": "Feature", "properties": { "emission": "tr4", "value": 0.0 }, "geometry": { "type": "Point", "coordinates": [ 129.339828, 35.494987, 450.0 ] } },
{ "type": "Feature", "properties": { "emission": "tr4", "value": 0.0 }, "geometry": { "type": "Point", "coordinates": [ 129.340942, 35.494984, 450.0 ] } },
{ "type": "Feature", "properties": { "emission": "tr4", "value": 0.0 }, "geometry": { "type": "Point", "coordinates": [ 129.342041, 35.49498, 450.0 ] } },
{ "type": "Feature", "properties": { "emission": "tr4", "value": 0.0 }, "geometry": { "type": "Point", "coordinates": [ 129.336533, 35.495895, 450.0 ] } },
{ "type": "Feature", "properties": { "emission": "tr4", "value": 0.0 }, "geometry": { "type": "Point", "coordinates": [ 129.337631, 35.495895, 450.0 ] } },
{ "type": "Feature", "properties": { "emission": "tr4", "value": 0.0 }, "geometry": { "type": "Point", "coordinates": [ 129.33873, 35.495892, 450.0 ] } },
{ "type": "Feature", "properties": { "emission": "tr4", "value": 0.0 }, "geometry": { "type": "Point", "coordinates": [ 129.339844, 35.495888, 450.0 ] } },
{ "type": "Feature", "properties": { "emission": "tr4", "value": 0.0 }, "geometry": { "type": "Point", "coordinates": [ 129.340942, 35.495884, 450.0 ] } },
{ "type": "Feature", "properties": { "emission": "tr4", "value": 0.0 }, "geometry": { "type": "Point", "coordinates": [ 129.342041, 35.49588, 450.0 ] } },
{ "type": "Feature", "properties": { "emission": "tr4", "value": 0.0 }, "geometry": { "type": "Point", "coordinates": [ 129.34314, 35.49588, 450.0 ] } },
{ "type": "Feature", "properties": { "emission": "tr4", "value": 0.0 }, "geometry": { "type": "Point", "coordinates": [ 129.344238, 35.495876, 450.0 ] } },
{ "type": "Feature", "properties": { "emission": "tr4", "value": 0.0 }, "geometry": { "type": "Point", "coordinates": [ 129.345352, 35.495872, 450.0 ] } },
{ "type": "Feature", "properties": { "emission": "tr4", "value": 0.0 }, "geometry": { "type": "Point", "coordinates": [ 129.336533, 35.496799, 450.0 ] } },
{ "type": "Feature", "properties": { "emission": "tr4", "value": 0.0 }, "geometry": { "type": "Point", "coordinates": [ 129.337631, 35.496796, 450.0 ] } },
{ "type": "Feature", "properties": { "emission": "tr4", "value": 0.0 }, "geometry": { "type": "Point", "coordinates": [ 129.338745, 35.496792, 450.0 ] } },
{ "type": "Feature", "properties": { "emission": "tr4", "value": 0.0 }, "geometry": { "type": "Point", "coordinates": [ 129.339844, 35.496788, 450.0 ] } },
{ "type": "Feature", "properties": { "emission": "tr4", "value": 0.0 }, "geometry": { "type": "Point", "coordinates": [ 129.340942, 35.496784, 450.0 ] } },
{ "type": "Feature", "properties": { "emission": "tr4", "value": 0.0 }, "geometry": { "type": "Point", "coordinates": [ 129.342041, 35.496784, 450.0 ] } },
{ "type": "Feature", "properties": { "emission": "tr4", "value": 0.0 }, "geometry": { "type": "Point", "coordinates": [ 129.34314, 35.49678, 450.0 ] } },
{ "type": "Feature", "properties": { "emission": "tr4", "value": 0.0 }, "geometry": { "type": "Point", "coordinates": [ 129.344254, 35.496777, 450.0 ] } },
{ "type": "Feature", "properties": { "emission": "tr4", "value": 0.0 }, "geometry": { "type": "Point", "coordinates": [ 129.345352, 35.496773, 450.0 ] } },
{ "type": "Feature", "properties": { "emission": "tr4", "value": 0.0 }, "geometry": { "type": "Point", "coordinates": [ 129.346451, 35.496769, 450.0 ] } },
{ "type": "Feature", "properties": { "emission": "tr4", "value": 0.0 }, "geometry": { "type": "Point", "coordinates": [ 129.347549, 35.496765, 450.0 ] } },
{ "type": "Feature", "properties": { "emission": "tr4", "value": 0.0 }, "geometry": { "type": "Point", "coordinates": [ 129.337646, 35.497696, 450.0 ] } },
{ "type": "Feature", "properties": { "emission": "tr4", "value": 0.0 }, "geometry": { "type": "Point", "coordinates": [ 129.338745, 35.497692, 450.0 ] } },
{ "type": "Feature", "properties": { "emission": "tr4", "value": 0.0 }, "geometry": { "type": "Point", "coordinates": [ 129.339844, 35.497692, 450.0 ] } },
{ "type": "Feature", "properties": { "emission": "tr4", "value": 0.0 }, "geometry": { "type": "Point", "coordinates": [ 129.340942, 35.497688, 450.0 ] } },
{ "type": "Feature", "properties": { "emission": "tr4", "value": 0.0 }, "geometry": { "type": "Point", "coordinates": [ 129.342041, 35.497684, 450.0 ] } },
{ "type": "Feature", "properties": { "emission": "tr4", "value": 0.0 }, "geometry": { "type": "Point", "coordinates": [ 129.343155, 35.497681, 450.0 ] } },
{ "type": "Feature", "properties": { "emission": "tr4", "value": 0.0 }, "geometry": { "type": "Point", "coordinates": [ 129.344254, 35.497677, 450.0 ] } },
{ "type": "Feature", "properties": { "emission": "tr4", "value": 0.0001 }, "geometry": { "type": "Point", "coordinates": [ 129.345352, 35.497673, 450.0 ] } },
{ "type": "Feature", "properties": { "emission": "tr4", "value": 0.0 }, "geometry": { "type": "Point", "coordinates": [ 129.346451, 35.497673, 450.0 ] } },
{ "type": "Feature", "properties": { "emission": "tr4", "value": 0.0 }, "geometry": { "type": "Point", "coordinates": [ 129.347565, 35.497669, 450.0 ] } },
{ "type": "Feature", "properties": { "emission": "tr4", "value": 0.0 }, "geometry": { "type": "Point", "coordinates": [ 129.348663, 35.497665, 450.0 ] } },
{ "type": "Feature", "properties": { "emission": "tr4", "value": 0.0 }, "geometry": { "type": "Point", "coordinates": [ 129.349762, 35.497662, 450.0 ] } },
{ "type": "Feature", "properties": { "emission": "tr4", "value": 0.0 }, "geometry": { "type": "Point", "coordinates": [ 129.350861, 35.497658, 450.0 ] } },
{ "type": "Feature", "properties": { "emission": "tr4", "value": 0.0 }, "geometry": { "type": "Point", "coordinates": [ 129.338745, 35.498596, 450.0 ] } },
{ "type": "Feature", "properties": { "emission": "tr4", "value": 0.0 }, "geometry": { "type": "Point", "coordinates": [ 129.339844, 35.498592, 450.0 ] } },
{ "type": "Feature", "properties": { "emission": "tr4", "value": 0.0 }, "geometry": { "type": "Point", "coordinates": [ 129.340958, 35.498589, 450.0 ] } },
{ "type": "Feature", "properties": { "emission": "tr4", "value": 0.0 }, "geometry": { "type": "Point", "coordinates": [ 129.342056, 35.498585, 450.0 ] } },
{ "type": "Feature", "properties": { "emission": "tr4", "value": 0.0001 }, "geometry": { "type": "Point", "coordinates": [ 129.343155, 35.498581, 450.0 ] } },
{ "type": "Feature", "properties": { "emission": "tr4", "value": 0.0002 }, "geometry": { "type": "Point", "coordinates": [ 129.344254, 35.498581, 450.0 ] } },
{ "type": "Feature", "properties": { "emission": "tr4", "value": 0.0002 }, "geometry": { "type": "Point", "coordinates": [ 129.345352, 35.498577, 450.0 ] } },
{ "type": "Feature", "properties": { "emission": "tr4", "value": 0.0002 }, "geometry": { "type": "Point", "coordinates": [ 129.346466, 35.498573, 450.0 ] } },
{ "type": "Feature", "properties": { "emission": "tr4", "value": 0.0001 }, "geometry": { "type": "Point", "coordinates": [ 129.347565, 35.498569, 450.0 ] } },
{ "type": "Feature", "properties": { "emission": "tr4", "value": 0.0001 }, "geometry": { "type": "Point", "coordinates": [ 129.348663, 35.498566, 450.0 ] } },
{ "type": "Feature", "properties": { "emission": "tr4", "value": 0.0 }, "geometry": { "type": "Point", "coordinates": [ 129.349762, 35.498562, 450.0 ] } },
{ "type": "Feature", "properties": { "emission": "tr4", "value": 0.0 }, "geometry": { "type": "Point", "coordinates": [ 129.350876, 35.498562, 450.0 ] } },
{ "type": "Feature", "properties": { "emission": "tr4", "value": 0.0 }, "geometry": { "type": "Point", "coordinates": [ 129.351974, 35.498558, 450.0 ] } },
{ "type": "Feature", "properties": { "emission": "tr4", "value": 0.0 }, "geometry": { "type": "Point", "coordinates": [ 129.353073, 35.498554, 450.0 ] } },
{ "type": "Feature", "properties": { "emission": "tr4", "value": 0.0 }, "geometry": { "type": "Point", "coordinates": [ 129.339859, 35.499493, 450.0 ] } },
{ "type": "Feature", "properties": { "emission": "tr4", "value": 0.0 }, "geometry": { "type": "Point", "coordinates": [ 129.340958, 35.499489, 450.0 ] } },
{ "type": "Feature", "properties": { "emission": "tr4", "value": 0.0 }, "geometry": { "type": "Point", "coordinates": [ 129.342056, 35.499485, 450.0 ] } },
{ "type": "Feature", "properties": { "emission": "tr4", "value": 0.0001 }, "geometry": { "type": "Point", "coordinates": [ 129.343155, 35.499485, 450.0 ] } },
{ "type": "Feature", "properties": { "emission": "tr4", "value": 0.0003 }, "geometry": { "type": "Point", "coordinates": [ 129.344254, 35.499481, 450.0 ] } },
{ "type": "Feature", "properties": { "emission": "tr4", "value": 0.0005 }, "geometry": { "type": "Point", "coordinates": [ 129.345367, 35.499477, 450.0 ] } },
{ "type": "Feature", "properties": { "emission": "tr4", "value": 0.0005 }, "geometry": { "type": "Point", "coordinates": [ 129.346466, 35.499474, 450.0 ] } },
{ "type": "Feature", "properties": { "emission": "tr4", "value": 0.0004 }, "geometry": { "type": "Point", "coordinates": [ 129.347565, 35.49947, 450.0 ] } },
{ "type": "Feature", "properties": { "emission": "tr4", "value": 0.0003 }, "geometry": { "type": "Point", "coordinates": [ 129.348663, 35.499466, 450.0 ] } },
{ "type": "Feature", "properties": { "emission": "tr4", "value": 0.0002 }, "geometry": { "type": "Point", "coordinates": [ 129.349777, 35.499466, 450.0 ] } },
{ "type": "Feature", "properties": { "emission": "tr4", "value": 0.0001 }, "geometry": { "type": "Point", "coordinates": [ 129.350876, 35.499462, 450.0 ] } },
{ "type": "Feature", "properties": { "emission": "tr4", "value": 0.0 }, "geometry": { "type": "Point", "coordinates": [ 129.351974, 35.499458, 450.0 ] } },
{ "type": "Feature", "properties": { "emission": "tr4", "value": 0.0 }, "geometry": { "type": "Point", "coordinates": [ 129.353073, 35.499454, 450.0 ] } },
{ "type": "Feature", "properties": { "emission": "tr4", "value": 0.0 }, "geometry": { "type": "Point", "coordinates": [ 129.354187, 35.499451, 450.0 ] } },
{ "type": "Feature", "properties": { "emission": "tr4", "value": 0.0 }, "geometry": { "type": "Point", "coordinates": [ 129.339859, 35.500393, 450.0 ] } },
{ "type": "Feature", "properties": { "emission": "tr4", "value": 0.0 }, "geometry": { "type": "Point", "coordinates": [ 129.340958, 35.500393, 450.0 ] } },
{ "type": "Feature", "properties": { "emission": "tr4", "value": 0.0 }, "geometry": { "type": "Point", "coordinates": [ 129.342056, 35.500389, 450.0 ] } },
{ "type": "Feature", "properties": { "emission": "tr4", "value": 0.0001 }, "geometry": { "type": "Point", "coordinates": [ 129.343155, 35.500385, 450.0 ] } },
{ "type": "Feature", "properties": { "emission": "tr4", "value": 0.0003 }, "geometry": { "type": "Point", "coordinates": [ 129.344269, 35.500381, 450.0 ] } },
{ "type": "Feature", "properties": { "emission": "tr4", "value": 0.0005 }, "geometry": { "type": "Point", "coordinates": [ 129.345367, 35.500378, 450.0 ] } },
{ "type": "Feature", "properties": { "emission": "tr4", "value": 0.0006 }, "geometry": { "type": "Point", "coordinates": [ 129.346466, 35.500374, 450.0 ] } },
{ "type": "Feature", "properties": { "emission": "tr4", "value": 0.0006 }, "geometry": { "type": "Point", "coordinates": [ 129.347565, 35.500374, 450.0 ] } },
{ "type": "Feature", "properties": { "emission": "tr4", "value": 0.0005 }, "geometry": { "type": "Point", "coordinates": [ 129.348679, 35.50037, 450.0 ] } },
{ "type": "Feature", "properties": { "emission": "tr4", "value": 0.0004 }, "geometry": { "type": "Point", "coordinates": [ 129.349777, 35.500366, 450.0 ] } },
{ "type": "Feature", "properties": { "emission": "tr4", "value": 0.0003 }, "geometry": { "type": "Point", "coordinates": [ 129.350876, 35.500362, 450.0 ] } },
{ "type": "Feature", "properties": { "emission": "tr4", "value": 0.0001 }, "geometry": { "type": "Point", "coordinates": [ 129.351974, 35.500359, 450.0 ] } },
{ "type": "Feature", "properties": { "emission": "tr4", "value": 0.0 }, "geometry": { "type": "Point", "coordinates": [ 129.353088, 35.500355, 450.0 ] } },
{ "type": "Feature", "properties": { "emission": "tr4", "value": 0.0 }, "geometry": { "type": "Point", "coordinates": [ 129.354187, 35.500355, 450.0 ] } },
{ "type": "Feature", "properties": { "emission": "tr4", "value": 0.0 }, "geometry": { "type": "Point", "coordinates": [ 129.355286, 35.500351, 450.0 ] } },
{ "type": "Feature", "properties": { "emission": "tr4", "value": 0.0 }, "geometry": { "type": "Point", "coordinates": [ 129.340958, 35.501293, 450.0 ] } },
{ "type": "Feature", "properties": { "emission": "tr4", "value": 0.0 }, "geometry": { "type": "Point", "coordinates": [ 129.342056, 35.501289, 450.0 ] } },
{ "type": "Feature", "properties": { "emission": "tr4", "value": 0.0 }, "geometry": { "type": "Point", "coordinates": [ 129.34317, 35.501286, 450.0 ] } },
{ "type": "Feature", "properties": { "emission": "tr4", "value": 0.0002 }, "geometry": { "type": "Point", "coordinates": [ 129.344269, 35.501282, 450.0 ] } },
{ "type": "Feature", "properties": { "emission": "tr4", "value": 0.0003 }, "geometry": { "type": "Point", "coordinates": [ 129.345367, 35.501278, 450.0 ] } },
{ "type": "Feature", "properties": { "emission": "tr4", "value": 0.0005 }, "geometry": { "type": "Point", "coordinates": [ 129.346466, 35.501278, 450.0 ] } },
{ "type": "Feature", "properties": { "emission": "tr4", "value": 0.0006 }, "geometry": { "type": "Point", "coordinates": [ 129.34758, 35.501274, 450.0 ] } },
{ "type": "Feature", "properties": { "emission": "tr4", "value": 0.0006 }, "geometry": { "type": "Point", "coordinates": [ 129.348679, 35.50127, 450.0 ] } },
{ "type": "Feature", "properties": { "emission": "tr4", "value": 0.0006 }, "geometry": { "type": "Point", "coordinates": [ 129.349777, 35.501266, 450.0 ] } },
{ "type": "Feature", "properties": { "emission": "tr4", "value": 0.0004 }, "geometry": { "type": "Point", "coordinates": [ 129.350876, 35.501263, 450.0 ] } },
{ "type": "Feature", "properties": { "emission": "tr4", "value": 0.0002 }, "geometry": { "type": "Point", "coordinates": [ 129.35199, 35.501259, 450.0 ] } },
{ "type": "Feature", "properties": { "emission": "tr4", "value": 0.0001 }, "geometry": { "type": "Point", "coordinates": [ 129.353088, 35.501259, 450.0 ] } },
{ "type": "Feature", "properties": { "emission": "tr4", "value": 0.0 }, "geometry": { "type": "Point", "coordinates": [ 129.354187, 35.501255, 450.0 ] } },
{ "type": "Feature", "properties": { "emission": "tr4", "value": 0.0 }, "geometry": { "type": "Point", "coordinates": [ 129.355286, 35.501251, 450.0 ] } }
]
}
